<svg xmlns="http://www.w3.org/2000/svg" width="122" height="88.781" viewBox="0 0 122 88.781">
  <g id="camera-drone" transform="translate(0 -69.701)">
    <path id="Path_1157" data-name="Path 1157" d="M120.213,82.218H111.89v-1.1a1.787,1.787,0,1,0-3.574,0v1.1H99.994a1.787,1.787,0,1,0,0,3.574h8.322v5.572h-3.027a1.787,1.787,0,0,0-1.787,1.787v.62H86.795a25.856,25.856,0,0,0-51.589,0H18.5v-.62a1.787,1.787,0,0,0-1.787-1.787H13.684V85.792h8.322a1.787,1.787,0,1,0,0-3.574H13.684v-1.1a1.787,1.787,0,1,0-3.574,0v1.1H1.787a1.787,1.787,0,1,0,0,3.574h8.322v5.572H7.083A1.787,1.787,0,0,0,5.3,93.151v14.442a1.787,1.787,0,0,0,1.787,1.787h9.628a1.787,1.787,0,0,0,1.787-1.787v-.62H31.852a5.384,5.384,0,0,0,1.172,5.549,5.408,5.408,0,0,0,2.119,1.364v23.473a1.787,1.787,0,0,0,3.574,0V129.6H48.965a1.787,1.787,0,0,0,1.43-.715L54,124.071a.623.623,0,0,1,.5-.248h13a.623.623,0,0,1,.5.248l3.61,4.814a1.787,1.787,0,0,0,1.43.715H83.283v7.759a1.787,1.787,0,1,0,3.574,0V113.886a5.413,5.413,0,0,0,2.119-1.364,5.355,5.355,0,0,0,1.486-3.984,5.3,5.3,0,0,0-.314-1.565H103.5v.62a1.787,1.787,0,0,0,1.787,1.787h9.628a1.787,1.787,0,0,0,1.787-1.787V93.151a1.787,1.787,0,0,0-1.787-1.787H111.89V85.792h8.323a1.787,1.787,0,1,0,0-3.574ZM83.283,103.4H71.693v-3.166h2.546A1.786,1.786,0,0,0,75.5,99.71l2.365-2.365h5.416Zm-29.4,0V98.447a7.119,7.119,0,1,1,14.238,0V103.4Zm-15.164,0V97.346h5.416L46.5,99.711a1.786,1.786,0,0,0,1.264.523h2.546V103.4H38.717ZM61,73.275a22.313,22.313,0,0,1,22.211,20.5H77.127a1.786,1.786,0,0,0-1.264.523L73.5,96.66H71.541a10.691,10.691,0,0,0-21.082,0H48.5l-2.365-2.365a1.786,1.786,0,0,0-1.264-.523H38.788A22.313,22.313,0,0,1,61,73.275ZM14.924,105.806H8.87V94.938h6.054ZM18.5,97.346H35.143V103.4H18.5Zm23.866,16.849v11.831H38.717V114.195Zm37.273,11.831V114.195h3.647v11.831Zm6.754-15.97a1.808,1.808,0,0,1-1.32.565H65.187a1.787,1.787,0,0,0,0,3.574H76.062v11.831H73.928l-3.074-4.1a4.214,4.214,0,0,0-3.355-1.678h-13a4.214,4.214,0,0,0-3.355,1.678l-3.074,4.1H45.938V114.195h10.9a1.787,1.787,0,0,0,0-3.574H36.929a1.824,1.824,0,0,1-1.821-1.914,1.9,1.9,0,0,1,1.923-1.733H84.968a1.9,1.9,0,0,1,1.923,1.733A1.809,1.809,0,0,1,86.39,110.055Zm.468-6.656V97.346H103.5V103.4Zm26.273,2.407h-6.054V94.938h6.054Z" fill="#151b25"/>
    <path id="Path_1158" data-name="Path 1158" d="M197.411,381.2a1.787,1.787,0,0,0-1.787,1.787v9.2H151.057v-9.2a1.787,1.787,0,0,0-3.574,0v10.983a1.787,1.787,0,0,0,1.787,1.787h48.14a1.787,1.787,0,0,0,1.787-1.787V382.992A1.787,1.787,0,0,0,197.411,381.2Z" transform="translate(-112.341 -237.278)" fill="#151b25"/>
    <path id="Path_1159" data-name="Path 1159" d="M230.924,333.656a11.415,11.415,0,1,0-11.415,11.415A11.428,11.428,0,0,0,230.924,333.656Zm-19.256,0a7.841,7.841,0,1,1,7.841,7.841,7.85,7.85,0,0,1-7.841-7.841Z" transform="translate(-158.509 -192.364)" fill="#151b25"/>
  </g>
</svg>
