<svg xmlns="http://www.w3.org/2000/svg" width="29.442" height="442.626" viewBox="0 0 29.442 442.626">
  <g id="Group_3285" data-name="Group 3285" transform="translate(0 442.626) rotate(-90)">
    <g id="Group_3283" data-name="Group 3283" transform="translate(0 3.832)">
      <g id="Group_3263" data-name="Group 3263" transform="translate(0 0.354)">
        <path id="Path_1109" data-name="Path 1109" d="M3.321.677A.758.758,0,0,1,4,0h13.16a.568.568,0,0,1,.534.677l-.428,2.915a.761.761,0,0,1-.711.677H7.447L6.629,10.1h7.54a.586.586,0,0,1,.534.674l-.428,2.953a.786.786,0,0,1-.71.676H6.026l-.89,6.225h9.14c.356,0,.534.32.5.676l-.392,2.917a.758.758,0,0,1-.71.676H.512a.526.526,0,0,1-.5-.676Z" transform="translate(0 0)" fill="#fff"/>
      </g>
      <g id="Group_3264" data-name="Group 3264" transform="translate(19.397 0)">
        <path id="Path_1110" data-name="Path 1110" d="M3.344.64A.726.726,0,0,1,4.022,0h.925L15.8,15.366h.036L17.75,1.031a.729.729,0,0,1,.677-.677h3.45a.588.588,0,0,1,.534.677L19.032,24.968a.72.72,0,0,1-.676.641H17.4L6.583,9.78H6.547l-1.921,14.8a.758.758,0,0,1-.71.676H.5a.537.537,0,0,1-.5-.6Z" transform="translate(0)" fill="#fff"/>
      </g>
      <g id="Group_3265" data-name="Group 3265" transform="translate(44.761 0)">
        <path id="Path_1111" data-name="Path 1111" d="M13.268,0a9.225,9.225,0,0,1,7.4,3.379.736.736,0,0,1-.144,1L18.639,6.225a.837.837,0,0,1-1.175,0,6.015,6.015,0,0,0-4.445-1.779c-4.269,0-7.969,4.41-7.969,9.5,0,3.768,2.385,7.042,5.514,7.042a7.1,7.1,0,0,0,3.629-.854L14.619,17H12.342a.538.538,0,0,1-.533-.641l.392-2.773a.757.757,0,0,1,.712-.677h6.294a.566.566,0,0,1,.5.677l-1.174,8.537a1.626,1.626,0,0,1-.57,1.1A13.156,13.156,0,0,1,10,25.609c-5.8,0-10-4.943-10-11.062C0,6.188,5.835,0,13.268,0Z" transform="translate(0)" fill="#fff"/>
      </g>
      <g id="Group_3266" data-name="Group 3266" transform="translate(68.047 0.354)">
        <path id="Path_1112" data-name="Path 1112" d="M3.32.677A.756.756,0,0,1,3.995,0H7.482a.546.546,0,0,1,.5.677L4.672,24.223a.757.757,0,0,1-.677.676H.51a.544.544,0,0,1-.5-.676Z" transform="translate(0 0)" fill="#fff"/>
      </g>
      <g id="Group_3267" data-name="Group 3267" transform="translate(79.082 0)">
        <path id="Path_1113" data-name="Path 1113" d="M3.348.64A.718.718,0,0,1,4.022,0h.926L15.8,15.366h.036L17.754,1.031a.726.726,0,0,1,.674-.677H21.88a.59.59,0,0,1,.533.677L19.034,24.968a.723.723,0,0,1-.677.641H17.4L6.584,9.78H6.548l-1.921,14.8a.757.757,0,0,1-.71.676H.5a.539.539,0,0,1-.5-.6Z" transform="translate(0 0)" fill="#fff"/>
      </g>
      <g id="Group_3268" data-name="Group 3268" transform="translate(104.504 0.354)">
        <path id="Path_1114" data-name="Path 1114" d="M3.32.677A.76.76,0,0,1,4,0H17.16a.567.567,0,0,1,.532.677l-.426,2.915a.762.762,0,0,1-.712.677H7.448L6.63,10.1h7.54a.587.587,0,0,1,.534.674l-.426,2.953a.787.787,0,0,1-.712.676H6.025l-.889,6.225h9.142c.356,0,.533.32.5.676l-.389,2.917a.762.762,0,0,1-.712.676H.513a.526.526,0,0,1-.5-.676Z" transform="translate(0 0)" fill="#fff"/>
      </g>
      <g id="Group_3269" data-name="Group 3269" transform="translate(123.89 0.354)">
        <path id="Path_1115" data-name="Path 1115" d="M3.322.677A.756.756,0,0,1,4,0H17.158a.565.565,0,0,1,.533.677l-.426,2.915a.76.76,0,0,1-.71.677H7.447L6.629,10.1H14.17a.587.587,0,0,1,.533.674l-.428,2.953a.783.783,0,0,1-.709.676H6.024l-.889,6.225h9.14c.357,0,.534.32.5.676l-.392,2.917a.76.76,0,0,1-.71.676H.512a.528.528,0,0,1-.5-.676Z" transform="translate(0 0)" fill="#fff"/>
      </g>
      <g id="Group_3270" data-name="Group 3270" transform="translate(143.277 0.354)">
        <path id="Path_1116" data-name="Path 1116" d="M3.321.677A.756.756,0,0,1,4,0h9.391C16.874,0,19.4,2.99,19.4,6.651c0,4.34-2.276,7.151-5.655,8.218l2.918,9.1a.651.651,0,0,1-.606.925H12.676a.726.726,0,0,1-.782-.569L9.3,15.152H5.918l-1.28,9.071a.758.758,0,0,1-.676.676H.511a.526.526,0,0,1-.5-.676Zm7.613,10.67a3.854,3.854,0,0,0,3.735-4.125c0-1.6-1-2.953-2.313-2.953H7.483l-1,7.078Z" transform="translate(0 0)" fill="#fff"/>
      </g>
      <g id="Group_3271" data-name="Group 3271" transform="translate(165.472 0.354)">
        <path id="Path_1117" data-name="Path 1117" d="M3.321.677A.755.755,0,0,1,4,0h13.16a.567.567,0,0,1,.534.677l-.428,2.915a.759.759,0,0,1-.709.677H7.448L6.628,10.1h7.54a.586.586,0,0,1,.534.674l-.426,2.953a.785.785,0,0,1-.712.676H6.025l-.889,6.225h9.14c.357,0,.532.32.5.676l-.393,2.917a.757.757,0,0,1-.709.676H.511a.526.526,0,0,1-.5-.676Z" transform="translate(0 0)" fill="#fff"/>
      </g>
      <g id="Group_3272" data-name="Group 3272" transform="translate(184.858 0.354)">
        <path id="Path_1118" data-name="Path 1118" d="M3.322.677A.756.756,0,0,1,4,0H11.68c5.621,0,9.639,5.051,9.639,10.814,0,7.717-5.655,14.085-13.124,14.085H.475a.524.524,0,0,1-.461-.676ZM8.444,20.559c4.34,0,7.932-4.089,7.932-9.426,0-3.876-2.205-6.829-5.62-6.829H7.411L5.135,20.559Z" transform="translate(0 0)" fill="#fff"/>
      </g>
      <g id="Group_3273" data-name="Group 3273" transform="translate(221.844 0.354)">
        <path id="Path_1119" data-name="Path 1119" d="M5.234,4.269H.538A.567.567,0,0,1,0,3.592L.432.677A.756.756,0,0,1,1.107,0h14.12a.568.568,0,0,1,.534.677l-.426,2.915a.761.761,0,0,1-.713.677H9.928L7.118,24.223a.791.791,0,0,1-.71.676H2.955a.589.589,0,0,1-.534-.676Z" transform="translate(0 0)" fill="#fff"/>
      </g>
      <g id="Group_3274" data-name="Group 3274" transform="translate(237.948 0.354)">
        <path id="Path_1120" data-name="Path 1120" d="M3.321.677A.757.757,0,0,1,4,0h13.16a.568.568,0,0,1,.533.677l-.426,2.915a.76.76,0,0,1-.712.677H7.447L6.629,10.1h7.54a.587.587,0,0,1,.534.674l-.426,2.953a.788.788,0,0,1-.712.676H6.024l-.889,6.225h9.142c.354,0,.533.32.5.676l-.392,2.917a.76.76,0,0,1-.712.676H.51a.527.527,0,0,1-.5-.676Z" transform="translate(0 0)" fill="#fff"/>
      </g>
      <g id="Group_3275" data-name="Group 3275" transform="translate(256.191 0)">
        <path id="Path_1121" data-name="Path 1121" d="M.231,21.768l1.388-2.027a.693.693,0,0,1,1.1-.143,7.2,7.2,0,0,0,4.41,1.848A3.116,3.116,0,0,0,10.3,18.425c0-1.566-1.066-2.6-3.057-3.912C4.891,12.982,2.116,10.954,2.116,7.4S4.569,0,10.156,0a9.772,9.772,0,0,1,6.332,2.312,1.01,1.01,0,0,1,.105,1.422L15.206,5.691c-.284.428-.746.462-1.245.071A7.005,7.005,0,0,0,9.942,4.2,2.908,2.908,0,0,0,6.918,6.971c0,1.422.961,2.135,3.1,3.556,2.348,1.566,5.476,3.523,5.476,7.434,0,4.164-3.235,7.648-8.5,7.648A9.726,9.726,0,0,1,.231,22.835C.018,22.621-.159,22.3.231,21.768Z" transform="translate(0 0)" fill="#fff"/>
      </g>
      <g id="Group_3276" data-name="Group 3276" transform="translate(275.52 0.354)">
        <path id="Path_1122" data-name="Path 1122" d="M5.232,4.269H.537A.567.567,0,0,1,0,3.592L.43.677A.756.756,0,0,1,1.106,0H15.227a.567.567,0,0,1,.533.677l-.426,2.915a.758.758,0,0,1-.712.677h-4.7L7.118,24.223a.792.792,0,0,1-.711.676H2.955a.588.588,0,0,1-.534-.676Z" transform="translate(0 0)" fill="#fff"/>
      </g>
      <g id="Group_3277" data-name="Group 3277" transform="translate(291.621 0.354)">
        <path id="Path_1123" data-name="Path 1123" d="M3.323.677A.756.756,0,0,1,4,0h13.16a.568.568,0,0,1,.534.677l-.428,2.915a.757.757,0,0,1-.712.677h-9.1L6.631,10.1h7.54a.587.587,0,0,1,.534.674l-.428,2.953a.788.788,0,0,1-.711.676H6.026l-.887,6.225h9.139c.355,0,.533.32.5.676l-.392,2.917a.76.76,0,0,1-.712.676H.513a.529.529,0,0,1-.5-.676Z" transform="translate(0 0)" fill="#fff"/>
      </g>
      <g id="Group_3278" data-name="Group 3278" transform="translate(311.008 0.354)">
        <path id="Path_1124" data-name="Path 1124" d="M3.321.677A.758.758,0,0,1,4,0H11.68c5.619,0,9.637,5.051,9.637,10.814,0,7.717-5.654,14.085-13.124,14.085H.476a.524.524,0,0,1-.462-.676ZM8.442,20.559c4.341,0,7.932-4.089,7.932-9.426,0-3.876-2.205-6.829-5.62-6.829H7.411L5.134,20.559Z" transform="translate(0 0)" fill="#fff"/>
      </g>
      <g id="Group_3279" data-name="Group 3279" transform="translate(349.835 0.354)">
        <path id="Path_1125" data-name="Path 1125" d="M5.232,4.269H.537A.567.567,0,0,1,0,3.592L.429.677A.757.757,0,0,1,1.106,0H15.227a.567.567,0,0,1,.533.677l-.426,2.915a.76.76,0,0,1-.71.677h-4.7L7.117,24.223a.79.79,0,0,1-.71.676H2.957a.585.585,0,0,1-.533-.676Z" transform="translate(0 0)" fill="#fff"/>
      </g>
      <g id="Group_3280" data-name="Group 3280" transform="translate(365.938 0.354)">
        <path id="Path_1126" data-name="Path 1126" d="M3.321.677A.753.753,0,0,1,4,0h9.391C16.873,0,19.4,2.99,19.4,6.651c0,4.34-2.276,7.151-5.656,8.218l2.918,9.1a.65.65,0,0,1-.6.925H12.676a.726.726,0,0,1-.782-.569L9.3,15.152H5.918L4.636,24.223a.754.754,0,0,1-.674.676H.51a.526.526,0,0,1-.5-.676Zm7.612,10.67a3.853,3.853,0,0,0,3.735-4.125c0-1.6-1-2.953-2.313-2.953H7.482l-.994,7.078Z" transform="translate(0 0)" fill="#fff"/>
      </g>
      <g id="Group_3281" data-name="Group 3281" transform="translate(388.97 0.354)">
        <path id="Path_1127" data-name="Path 1127" d="M2.2.677A.8.8,0,0,1,2.911,0H6.432a.565.565,0,0,1,.533.677L4.9,15.224c-.426,3.023,1,5.335,3.487,5.335,2.525,0,4.622-2.312,5.049-5.3L15.5.677A.758.758,0,0,1,16.214,0h3.522a.588.588,0,0,1,.534.677l-2.1,14.8c-.746,5.406-4.837,9.781-10.42,9.781-4.946,0-8.4-4.376-7.648-9.781Z" transform="translate(0 0)" fill="#fff"/>
      </g>
      <g id="Group_3282" data-name="Group 3282" transform="translate(411.93 0.354)">
        <path id="Path_1128" data-name="Path 1128" d="M3.319.677A.759.759,0,0,1,4,0h13.16a.568.568,0,0,1,.533.677l-.426,2.915a.76.76,0,0,1-.713.677H7.446L6.629,10.1h7.54a.587.587,0,0,1,.534.674l-.426,2.953a.788.788,0,0,1-.712.676H6.024l-.889,6.225h9.142c.354,0,.534.32.5.676l-.389,2.917a.765.765,0,0,1-.713.676H.51a.527.527,0,0,1-.5-.676Z" transform="translate(0 0)" fill="#fff"/>
      </g>
    </g>
    <g id="Group_3284" data-name="Group 3284" transform="translate(435.413 0)">
      <path id="Path_1129" data-name="Path 1129" d="M0,3.605A3.606,3.606,0,1,0,3.606,0,3.607,3.607,0,0,0,0,3.605M3.606,6.433A2.773,2.773,0,0,1,.885,3.605,2.775,2.775,0,0,1,3.606.777a2.774,2.774,0,0,1,2.72,2.828A2.772,2.772,0,0,1,3.606,6.433ZM2.77,3.325V2.15h.8c.407,0,.913.076.913.551,0,.574-.457.624-.972.624Zm1.662,2.34h.836L4.141,3.9A1.12,1.12,0,0,0,5.2,2.732c0-.835-.524-1.184-1.546-1.184h-1.6V5.665H2.77V3.926h.613Z" transform="translate(0)" fill="#fff" fill-rule="evenodd"/>
    </g>
  </g>
</svg>
