<svg xmlns="http://www.w3.org/2000/svg" width="646.575" height="69.971" viewBox="0 0 646.575 69.971">
  <g id="Group_3257" data-name="Group 3257" transform="translate(-295.837 -202.845)">
    <path id="Path_1097" data-name="Path 1097" d="M364.966,253.7V204.089a.688.688,0,0,0-.688-.688H296.529a.69.69,0,0,0-.491,1.174l8.686,8.685a.709.709,0,0,0,.489.2h49.008a.686.686,0,0,1,.683.688v8.685a.684.684,0,0,1-.683.686H316.651a.687.687,0,0,0-.488,1.174l8.688,8.686a.678.678,0,0,0,.486.2h28.884a.684.684,0,0,1,.683.686v8.685a.686.686,0,0,1-.683.689H336.77a.686.686,0,0,0-.485,1.171l8.686,8.686a.686.686,0,0,0,.485.2h8.765a.686.686,0,0,1,.683.69v8.762a.7.7,0,0,0,.2.485l8.688,8.686a.688.688,0,0,0,1.173-.486Z" transform="translate(0 0.287)" fill="#f17b21"/>
    <g id="Group_3256" data-name="Group 3256" transform="translate(390.301 202.845)">
      <g id="Group_3254" data-name="Group 3254">
        <path id="Path_1098" data-name="Path 1098" d="M358.172,205.072a1.652,1.652,0,0,1,1.653-1.653H395.25a1.653,1.653,0,0,1,1.653,1.653v7.138a1.653,1.653,0,0,1-1.653,1.653H369.486v14.272h21.5a1.712,1.712,0,0,1,1.653,1.655v7.224a1.652,1.652,0,0,1-1.653,1.653h-21.5V253.9H395.25a1.654,1.654,0,0,1,1.653,1.655v7.135a1.653,1.653,0,0,1-1.653,1.655H359.825a1.652,1.652,0,0,1-1.653-1.655Z" transform="translate(-358.172 -202.549)" fill="#f1f1f2"/>
        <path id="Path_1099" data-name="Path 1099" d="M386.771,262.376,413.84,203.8a1.563,1.563,0,0,1,1.479-.956h.87a1.479,1.479,0,0,1,1.479.956l26.808,58.574A1.537,1.537,0,0,1,443,264.64h-7.571A2.5,2.5,0,0,1,432.9,262.9l-4.266-9.4H402.612l-4.266,9.4a2.621,2.621,0,0,1-2.525,1.741h-7.57A1.537,1.537,0,0,1,386.771,262.376Zm37.6-18.537-8.7-19.147h-.261l-8.53,19.147Z" transform="translate(-343.521 -202.845)" fill="#f1f1f2"/>
        <path id="Path_1100" data-name="Path 1100" d="M455.514,202.845a32.9,32.9,0,0,1,21.237,8.1,1.683,1.683,0,0,1,.086,2.435l-5.4,5.657a1.483,1.483,0,0,1-2.261,0,19.737,19.737,0,0,0-13.142-5.048c-10.879,0-19.5,9.314-19.5,20.193a19.8,19.8,0,0,0,19.584,19.929,27.216,27.216,0,0,0,10.356-2.176v-7.4h-6.963a1.583,1.583,0,0,1-1.653-1.568v-6.876a1.6,1.6,0,0,1,1.653-1.653h16.711a1.636,1.636,0,0,1,1.567,1.653v22.281a1.679,1.679,0,0,1-.7,1.393,43.976,43.976,0,0,1-21.586,5.657,31.289,31.289,0,0,1,0-62.578Z" transform="translate(-324.103 -202.845)" fill="#f1f1f2"/>
        <path id="Path_1101" data-name="Path 1101" d="M468.028,205.072a1.652,1.652,0,0,1,1.653-1.653h8.006a1.712,1.712,0,0,1,1.655,1.653V253.9h22.193a1.653,1.653,0,0,1,1.653,1.655v7.135a1.652,1.652,0,0,1-1.653,1.655H469.681a1.652,1.652,0,0,1-1.653-1.655Z" transform="translate(-301.549 -202.549)" fill="#f1f1f2"/>
        <path id="Path_1102" data-name="Path 1102" d="M497.027,205.072a1.653,1.653,0,0,1,1.653-1.653h35.425a1.653,1.653,0,0,1,1.653,1.653v7.138a1.653,1.653,0,0,1-1.653,1.653H508.341v14.272h21.5a1.711,1.711,0,0,1,1.653,1.655v7.224a1.651,1.651,0,0,1-1.653,1.653h-21.5V253.9h25.764a1.654,1.654,0,0,1,1.653,1.655v7.135a1.653,1.653,0,0,1-1.653,1.655H498.68a1.653,1.653,0,0,1-1.653-1.655Z" transform="translate(-286.602 -202.549)" fill="#f1f1f2"/>
        <path id="Path_1103" data-name="Path 1103" d="M551.21,204.15a1.467,1.467,0,0,1,1.566-1.3h1.393a1.588,1.588,0,0,1,1.479.87L574.8,244.8h.261L594.2,203.715a1.5,1.5,0,0,1,1.482-.87h1.391a1.469,1.469,0,0,1,1.567,1.3l10.27,58.487a1.512,1.512,0,0,1-1.565,2h-7.921a1.885,1.885,0,0,1-1.653-1.3l-5.136-32.986h-.261l-15.232,34.2a1.481,1.481,0,0,1-1.479.956H574.1a1.567,1.567,0,0,1-1.481-.956l-15.4-34.2h-.261l-5.048,32.986a1.684,1.684,0,0,1-1.568,1.3h-7.832a1.594,1.594,0,0,1-1.653-2Z" transform="translate(-264.027 -202.845)" fill="#f1f1f2"/>
        <path id="Path_1104" data-name="Path 1104" d="M592.515,205.072a1.654,1.654,0,0,1,1.655-1.653h35.423a1.653,1.653,0,0,1,1.653,1.653v7.138a1.653,1.653,0,0,1-1.653,1.653H603.829v14.272h21.5a1.713,1.713,0,0,1,1.655,1.655v7.224a1.652,1.652,0,0,1-1.655,1.653h-21.5V253.9h25.764a1.654,1.654,0,0,1,1.653,1.655v7.135a1.653,1.653,0,0,1-1.653,1.655H594.17a1.655,1.655,0,0,1-1.655-1.655Z" transform="translate(-237.384 -202.549)" fill="#f1f1f2"/>
        <path id="Path_1105" data-name="Path 1105" d="M637.875,213.863H624.559a1.653,1.653,0,0,1-1.655-1.653v-7.138a1.653,1.653,0,0,1,1.655-1.653h38.033a1.653,1.653,0,0,1,1.655,1.653v7.138a1.653,1.653,0,0,1-1.655,1.653H649.277v48.826a1.712,1.712,0,0,1-1.653,1.655h-8.1a1.712,1.712,0,0,1-1.653-1.655Z" transform="translate(-221.721 -202.549)" fill="#f1f1f2"/>
        <path id="Path_1106" data-name="Path 1106" d="M646.966,262.376,674.035,203.8a1.563,1.563,0,0,1,1.479-.956h.87a1.482,1.482,0,0,1,1.481.956l26.806,58.574a1.537,1.537,0,0,1-1.479,2.264h-7.572a2.5,2.5,0,0,1-2.525-1.741l-4.263-9.4H662.807l-4.264,9.4a2.623,2.623,0,0,1-2.523,1.741h-7.574A1.537,1.537,0,0,1,646.966,262.376Zm37.6-18.537-8.7-19.147H675.6l-8.527,19.147Z" transform="translate(-209.408 -202.845)" fill="#f1f1f2"/>
        <path id="Path_1107" data-name="Path 1107" d="M688.484,205.072a1.653,1.653,0,0,1,1.655-1.653h8.006a1.712,1.712,0,0,1,1.653,1.653V253.9h22.193a1.654,1.654,0,0,1,1.655,1.655v7.135a1.653,1.653,0,0,1-1.655,1.655H690.139a1.654,1.654,0,0,1-1.655-1.655Z" transform="translate(-187.919 -202.549)" fill="#f1f1f2"/>
      </g>
      <g id="Group_3255" data-name="Group 3255" transform="translate(538.602 1.297)">
        <path id="Path_1108" data-name="Path 1108" d="M727.092,210.275a6.757,6.757,0,1,1-6.735-6.574A6.606,6.606,0,0,1,727.092,210.275Zm-11.825,0a5.092,5.092,0,0,0,5.13,5.251,5.034,5.034,0,0,0,5.012-5.21,5.075,5.075,0,1,0-10.141-.041Zm4.048,3.448h-1.523v-6.574a13.367,13.367,0,0,1,2.526-.2,4.093,4.093,0,0,1,2.284.48,1.824,1.824,0,0,1,.642,1.444,1.685,1.685,0,0,1-1.364,1.523v.079a1.941,1.941,0,0,1,1.2,1.6,5.014,5.014,0,0,0,.48,1.643h-1.643a5.594,5.594,0,0,1-.521-1.6c-.121-.721-.521-1.043-1.364-1.043h-.721Zm.041-3.728h.721c.841,0,1.523-.28,1.523-.962,0-.6-.441-1-1.4-1a3.6,3.6,0,0,0-.841.08Z" transform="translate(-713.584 -203.701)" fill="#f1f1f2"/>
      </g>
    </g>
  </g>
</svg>
