<svg xmlns="http://www.w3.org/2000/svg" width="18.288" height="23.719" viewBox="0 0 18.288 23.719">
  <g id="Group_1035" data-name="Group 1035" transform="translate(0 23.719) rotate(-90)">
    <path id="Path_665" data-name="Path 665" d="M23.478,9.727h0L15.206,18a.827.827,0,1,1-1.166-1.166L20.9,9.967H.827a.827.827,0,0,1,0-1.654H20.9L14.04,1.455A.827.827,0,1,1,15.206.289l8.272,8.272A.827.827,0,0,1,23.478,9.727Z" fill="#fff"/>
  </g>
</svg>
